DATATHON
…
set.seed(1)

rolling_cv <- rolling_origin(df_fe, initial = 365, assess = 30, cumulative = FALSE, skip = 30 )

rolling_cv

# Rolling origin forecast resampling 
# A tibble: 30 × 2
   splits           id     
   <list>           <chr>  
 1 <split [365/30]> Slice01
 2 <split [365/30]> Slice02
 3 <split [365/30]> Slice03
 4 <split [365/30]> Slice04
 5 <split [365/30]> Slice05
 6 <split [365/30]> Slice06
 7 <split [365/30]> Slice07
 8 <split [365/30]> Slice08
 9 <split [365/30]> Slice09
10 <split [365/30]> Slice10
# ℹ 20 more rows
…
df_bottom_long <- df_bottom %>%
  pivot_longer(
    cols = c(transport_costs, infrastructure_costs, risk_costs),
    names_to = "cost_type",
    values_to = "value"
  ) %>%
  as_tsibble(index = date, key = cost_type)

df_hier <- df_bottom_long %>%
  aggregate_key(. ~ cost_type, value = sum(value))

df_hier

# A tsibble: 5,228 x 3 [1D]
# Key:       cost_type [4]

Loading required namespace: crayon

   date       cost_type    value
   <date>     <chr*>       <dbl>
 1 2021-01-31 <aggregated>  223.
 2 2021-02-01 <aggregated>  258.
 3 2021-02-02 <aggregated>  242.
 4 2021-02-03 <aggregated>  393.
 5 2021-02-04 <aggregated>  335.
 6 2021-02-05 <aggregated>  321.
 7 2021-02-06 <aggregated>  271.
 8 2021-02-07 <aggregated>  218.
 9 2021-02-08 <aggregated>  347.
10 2021-02-09 <aggregated>  300.
# ℹ 5,218 more rows
